{
  "table": {
    "prefix": "table",
    "description": "insert a table",
    "body": [
      " ┌─────────────┬──────────────────────┬────────────────────────────────┐",
      " │             │                      │                                │",
      " ├─────────────┼──────────────────────┼────────────────────────────────┤",
      " │             │                      │                                │",
      " │             │                      │                                │",
      " │             │                      │                                │",
      " │             │                      │                                │",
      " └─────────────┴──────────────────────┴────────────────────────────────┘",
      "",
      "${0}"
    ],
    "luasnip": {
      "priority": -60
    }
  },
  "lorem": {
    "prefix": "lorem",
    "description": "Lorem Ipsum - 50 Words",
    "body": [
      "Lorem ipsum dolor sit amet, consetetur sadipscing elitr, sed diam nonumy eirmod",
      "tempor invidunt ut labore et dolore magna aliquyam erat, sed diam voluptua. At",
      "vero eos et accusam et justo duo dolores et ea rebum. Stet clita kasd",
      "gubergren, no sea takimata sanctus est Lorem ipsum dolor sit amet.",
      "$0"
    ]
  },
  "bye": {
    "prefix": "bye",
    "description": "My mail signature",
    "body": [
      "Good bye, Sir. Hope to talk to you soon.",
      "- Arthur, King of Britain"
    ]
  },
  "gibrish": {
    "prefix": "gibrish",
    "description": "random text 3 paragraphs",
    "body": [
      "\"Gibrish\"",
      "Alas cockatoo far dear much irrespective lorikeet zebra oh fetchingly yikes",
      "ouch tapir up opposite caudal certain astride faithful filled far candidly alas",
      "sanctimonious because or oh fashionable blubbered regardless wow testy weird",
      "less capybara wow wow one alas some less a this well ambiguously broke strived",
      "the but wow abashedly beside",
      "",
      "Alas cockatoo far dear much irrespective lorikeet zebra oh fetchingly yikes",
      "ouch tapir up opposite caudal certain astride faithful filled far candidly alas",
      "sanctimonious because or oh fashionable blubbered regardless wow testy weird",
      "less capybara wow wow one alas some less a this well ambiguously broke strived",
      "the but wow abashedly beside",
      "",
      "Alas cockatoo far dear much irrespective lorikeet zebra oh fetchingly yikes",
      "ouch tapir up opposite caudal certain astride faithful filled far candidly alas",
      "sanctimonious because or oh fashionable blubbered regardless wow testy weird",
      "less capybara wow wow one alas some less a this well ambiguously broke strived",
      "the but wow abashedly beside",
      "",
      "${0}"
    ]
  },
  "fox": {
    "prefix": "fox",
    "description": "the quick fox...",
    "body": [
      "The quick brown fox jumps over the lazy dog.",
      "The lazy dog was jumped over by the quick brow fox."
    ]
  }
}
