{
  "ff": {
    "prefix": "ff",
    "description": "font-family",
    "body": "font-family: ${1:sans-serif};",
    "luasnip": {
      "priority": 2
    }
  },
  "fs": {
    "prefix": "fs",
    "description": "font-size:",
    "body": "font-size: ${1:1em};"
  },
  "fw4": {
    "prefix": "fw4",
    "description": "font-weight: 400",
    "body": "font-weight: 400;"
  },
  "fw5": {
    "prefix": "fw5",
    "description": "font-weight: 500",
    "body": "font-weight: 500;"
  },
  "fw6": {
    "prefix": "fw6",
    "description": "font-weight: 600",
    "body": "font-weight: 600;"
  },
  "fw7": {
    "prefix": "fw7",
    "description": "font-weight: 700",
    "body": "font-weight: 700;"
  },
  "fw8": {
    "prefix": "fw8",
    "description": "font-weight: 800",
    "body": "font-weight: 800;"
  },
  "fw9": {
    "prefix": "fw9",
    "description": "font-weight: 900",
    "body": "font-weight: 900;"
  },
  "va": {
    "prefix": "va",
    "description": "vertical-align: ___",
    "body": "vertical-align: ${1:top|bottom|baseline|middle};"
  },
  "dl": {
    "prefix": "dl",
    "description": "defined list",
    "body": [
      "<dl>",
      "    <dt> ${1:title}: </dt>",
      "    <dd> ${2:content} </dd>",
      "    $0",
      "<dl>"
    ]
  },
  "dt": {
    "prefix": "dt",
    "description": "Add another item ina description list",
    "body": [
      "<dt> ${1:title}: </dt>",
      "<dd> ${2:content} </dd>"
    ]
  },
  "modeline": {
    "prefix": "modeline",
    "description": "add modeline",
    "body": [
      "/* vim:set tabstop=4 softtabstop=4 shiftwidth=4 expandtab spell cole=0 */",
      "$0"
    ]
  }
}
