{
  "#!": {
    "prefix": "#!",
    "body": [
      "#!/usr/bin/env python3",
      "# -*- coding: utf-8 -*-"
    ],
    "luasnip": {
      "priority": 1
    }
  },
  "imp": {
    "prefix": "imp",
    "description": "module import",
    "body": "import ${0:module}"
  },
  "uni": {
    "prefix": "uni",
    "body": [
      "def __unicode__(self):",
      "    ${0:representation}"
    ]
  },
  "cls": {
    "prefix": "cls",
    "description": "clean scren",
    "body": [
      "# import os",
      "def cls():",
      "    if os.name == 'posix':",
      "        os.system('clear')",
      "    else:",
      "        os.system('cls')"
    ]
  },
  "from": {
    "prefix": "from",
    "description": "import from a given module",
    "body": "from ${1:package} import ${0:module}"
  },
  "wh": {
    "prefix": "wh",
    "body": [
      "while ${1:condition}:",
      "    $0"
    ]
  },
  "dowh": {
    "prefix": "dowh",
    "body": [
      "while True:",
      "    $1",
      "    if ${0:condition}:",
      "        break"
    ]
  },
  "with": {
    "prefix": "with",
    "body": [
      "with ${1:expr} as ${2:var}:",
      "    $0"
    ]
  },
  "cl": {
    "prefix": "cl",
    "body": [
      "class ${1:ClassName}(${2:object}):",
      "    \"\"\"${3:docstring for $1}\"\"\"",
      "    def __init__(self, ${4:arg}):",
      "        ${5:super($1, self).__init__()}",
      "        self.$4 = $4",
      "        $0"
    ]
  },
  "defs": {
    "prefix": "defs",
    "body": [
      "def ${1:mname}(self, ${2:arg}):",
      "    $0"
    ]
  },
  "property": {
    "prefix": "property",
    "body": [
      "def ${1:foo}():",
      "    doc = \"${2:The $1 property.}\"",
      "    def fget(self):",
      "        ${3:return self._$1}",
      "    def fset(self, value):",
      "        ${4:self._$1 = value}",
      "    def fdel(self):",
      "        ${0:del self._$1}",
      "    return locals()",
      "$1 = property(**$1())",
      "# Ifs"
    ]
  },
  "if": {
    "prefix": "if",
    "body": [
      "if ${1:condition}:",
      "    $0"
    ]
  },
  "el": {
    "prefix": "el",
    "body": [
      "else:",
      "    $0"
    ]
  },
  "ei": {
    "prefix": "ei",
    "body": [
      "elif ${1:condition}:",
      "    $0"
    ]
  },
  "for": {
    "prefix": "for",
    "body": [
      "for ${1:item} in ${2:items}:",
      "    $0"
    ]
  },
  "cutf8": {
    "prefix": "cutf8",
    "body": "# -*- coding: utf-8 -*-"
  },
  "clatin1": {
    "prefix": "clatin1",
    "body": "# -*- coding: latin-1 -*-"
  },
  "cascii": {
    "prefix": "cascii",
    "body": "# -*- coding: ascii -*-"
  },
  "ld": {
    "prefix": "ld",
    "body": "${1:var} = lambda ${2:vars} : ${0:action}"
  },
  ".": {
    "prefix": ".",
    "body": "self."
  },
  "ry Try/Excep": {
    "prefix": "ry Try/Excep",
    "body": [
      "try:",
      "    $1",
      "except ${2:Exception}, ${3:e}:",
      "    ${0:raise $3}"
    ]
  },
  "ifmain": {
    "prefix": "ifmain",
    "description": "if name main test",
    "body": [
      "if __name__ == '__main__':",
      "    ${0:main()}"
    ]
  },
  "_": {
    "prefix": "_",
    "body": "__${1:init}__"
  },
  "pdb": {
    "prefix": "pdb",
    "body": "import pdb; pdb.set_trace()"
  },
  "ipdb": {
    "prefix": "ipdb",
    "body": "import ipdb; ipdb.set_trace()"
  },
  "pdbbb": {
    "prefix": "pdbbb",
    "body": "import pdbpp; pdbpp.set_trace()"
  },
  "pudb": {
    "prefix": "pudb",
    "body": "import pudb; pudb.set_trace()"
  },
  "pprint": {
    "prefix": "pprint",
    "body": "import pprint; pprint.pprint($1)"
  },
  "\"": {
    "prefix": "\"",
    "body": [
      "\"\"\"",
      "${0:doc}",
      "\"\"\""
    ]
  },
  "a=": {
    "prefix": "a=",
    "body": "self.assertEqual($0, $1)"
  },
  "testcase": {
    "prefix": "testcase",
    "body": [
      "class ${1:ExampleCase}(unittest.TestCase):",
      "    def test_${2:description}(self):",
      "        $0"
    ]
  },
  "fut": {
    "prefix": "fut",
    "body": "from __future__ import $0"
  },
  "getopt": {
    "prefix": "getopt",
    "body": [
      "try:",
      "    # Short option syntax: \"hv:\"",
      "    # Long option syntax: \"help\" or \"verbose=\"",
      "    opts, args = getopt.getopt(sys.argv[1:], \"${1:short_options}\", [${2:long_options}])",
      "",
      "    except getopt.GetoptError, err:",
      "        # Print debug info",
      "        print str(err)",
      "        ${3:error_action}",
      "",
      "    for option, argument in opts:",
      "        if option in (\"-h\", \"--help\"):",
      "            $0",
      "        elif option in (\"-v\", \"--verbose\"):",
      "            verbose = argument"
    ]
  },
  "glog": {
    "prefix": "glog",
    "body": [
      "import logging",
      "logger = logging.getLogger(${0:__name__})"
    ]
  },
  "le": {
    "prefix": "le",
    "body": "logger.error(${0:msg})"
  },
  "lg": {
    "prefix": "lg",
    "body": "logger.debug(${0:msg})"
  },
  "lw": {
    "prefix": "lw",
    "body": "logger.warning(${0:msg})"
  },
  "lc": {
    "prefix": "lc",
    "body": "logger.critical(${0:msg})"
  },
  "li": {
    "prefix": "li",
    "body": "logger.info(${0:msg})"
  },
  "epydoc": {
    "prefix": "epydoc",
    "body": [
      "    \"\"\"",
      "    ${1:Description}",
      "",
      "    @param ${2:param}: ${3: Description}",
      "    @type  $2: ${4: Type}",
      "",
      "    @return: ${5: Description}",
      "    @rtype : ${6: Type}",
      "",
      "    @raise e: ${0: Description}",
      "    \"\"\""
    ]
  },
  "dol": {
    "prefix": "dol",
    "body": [
      "def ${1:__init__}(self, *args, **kwargs):",
      "    super(${0:ClassName}, self).$1(*args, **kwargs)"
    ]
  },
  "kwg": {
    "prefix": "kwg",
    "body": "self.${1:var_name} = kwargs.get('$1', ${2:None})"
  },
  "lkwg": {
    "prefix": "lkwg",
    "body": "${1:var_name} = kwargs.get('$1', ${2:None})"
  },
  "args": {
    "prefix": "args",
    "body": "*args${1:,}$0"
  },
  "kwargs": {
    "prefix": "kwargs",
    "body": "**kwargs${1:,}$0"
  },
  "akw": {
    "prefix": "akw",
    "body": "*args, **kwargs${1:,}$0"
  },
  "modeline": {
    "prefix": "modeline",
    "description": "python modeline",
    "body": "# vim: ai ts=4 sts=4 et sw=4"
  },
  "fs": {
    "prefix": "fs",
    "description": "f-string",
    "body": "f'${1:content}'"
  },
  "fv": {
    "prefix": "fv",
    "description": "stores f-tring in a variable",
    "body": "${1:var_name} = f'${2:content}'"
  },
  "open": {
    "prefix": "open",
    "description": "open file",
    "body": [
      "with open('${1:file}', '${2:r}') as f:",
      "    f = f.read()"
    ]
  },
  "gnu": {
    "prefix": "gnu",
    "description": "gnu licence",
    "body": [
      "# This program is free software: you can redistribute it and/or modify",
      "# it under the terms of the GNU General Public License as published by",
      "# the Free Software Foundation, either version 3 of the License, or",
      "# (at your option) any later version.",
      "#",
      "# This program is distributed in the hope that it will be useful,",
      "# but WITHOUT ANY WARRANTY; without even the implied warranty of",
      "# MERCHANTABILITY or FITNESS FOR A PARTICULAR PURPOSE.  See the",
      "# GNU General Public License for more details.",
      "#",
      "# You should have received a copy of the GNU General Public License",
      "# along with this program.  If not, see <http://www.gnu.org/licenses/>.",
      "",
      "$0"
    ]
  }
}
