{
  "kbd": {
    "prefix": "kbd",
    "description": "keyboard shortcuts",
    "body": "<kbd>${1:keyboard}</kbd>"
  },
  "bold": {
    "prefix": "bold",
    "description": "*markdown bold*",
    "body": "*${1:text}*"
  }
}
